ANEMONE Workshop
…
データの概要１

データを読み込む

## データ整形・可視化・解析にtidyverseを利用
library(foreach)
library(tidyverse)

## データのロード
smat <- read_csv("ANEMONE DATA/Species_matrix.csv")
gmat <- read_csv("ANEMONE DATA/Genus_matrix.csv")
meta <- read_csv("ANEMONE DATA/Meta_table.csv")
smat

## # A tibble: 978 × 933
##    samplename       `Ablennes hians` `Dictyosoma burgeri` Dictyosoma rubrimacu…¹
##    <chr>                       <dbl>                <dbl>                  <dbl>
##  1 20171218T0103-K…                1                  256                    715
##  2 20171218T0240-K…                0                    0                      0
##  3 20180123T0030-K…                0                  579                      0
##  4 20180123T0135-K…                0                    0                      0
##  5 20180314T0045-K…                0                  415                      0
##  6 20180314T0200-K…                0                  149                      0
##  7 20180427T0040-K…                0                  253                      0
##  8 20180427T0205-K…                0                    0                      0
##  9 20180902T0105-K…                0                 3344                      0
## 10 20180902T0220-K…                0                  262                      0
## # ℹ 968 more rows
## # ℹ abbreviated name: ¹​`Dictyosoma rubrimaculatum`
## # ℹ 929 more variables: `Engraulis japonicus` <dbl>,
## #   `Enneapterygius etheostomus` <dbl>, `Entomacrodus stellifer` <dbl>,
## #   `Epinephelus akaara` <dbl>, `Ernogrammus hexagrammus` <dbl>,
## #   `Girella punctata` <dbl>, `Halichoeres tenuispinis` <dbl>,
## #   `Hypoatherina tsurugae` <dbl>, `Istigobius campbelli` <dbl>, …
…
## # A tibble: 5 × 2
##    year     n
##   <dbl> <int>
## 1  2017     2
## 2  2018    11
## 3  2019   157
## 4  2020   698
## 5  2021   126

# 水深別の各サイトのデータ数を降順にみてみる
meta2 <- meta |> mutate(site = str_sub(samplename, 15)) # samplenameの頭の情報yyyymmddxxxx-を除去
meta2 |> count(site) |> arrange(desc(n)) # サイト名ごとにデータ数をcountで数えarrangeで降順に並べる

## # A tibble: 218 × 2
##    site                        n
##    <chr>                   <int>
##  1 KUM-Nagahama              101
##  2 FRA-SetonaikaiWest         74
##  3 AKU-Hiai                   46
##  4 AMS-Asamushi               42
##  5 RUI-Iriomote               36
##  6 SZW-Takihama               34
##  7 AKS-AkkeshiRinkai          32
##  8 KNG-SagamigawaKushikawa    32
##  9 KUM-Otomi-Bottom           30
## 10 KUM-Otomi-Surface          30
## # ℹ 208 more rows
…
データの概要５

サンプリング間隔の多いサイトの(サンプル)多様度時系列を調べる

div_ts <- smat |>
    filter(str_detect(samplename, "KUM-Nagahama$") | str_detect(samplename, "FRA-SetonaikaiWest$")) |>
    pivot_longer(!samplename, names_to = "Species", values_to = "read") |> group_by(samplename) |>
    reframe(Order = str_c("D", 0:2), hillD = as.numeric(vegan::renyi(read, scale = 0:2))) |>
    ungroup() |> pivot_wider(names_from = Order, values_from = hillD)
div_ts

## # A tibble: 175 × 4
##    samplename                          D0    D1    D2
##    <chr>                            <dbl> <dbl> <dbl>
##  1 20190106T2350-FRA-SetonaikaiWest  2.71  1.95  1.39
##  2 20190110T0110-KUM-Nagahama        3.40  1.95  1.53
##  3 20190114T2345-FRA-SetonaikaiWest  3.04  2.27  1.87
##  4 20190120T2349-FRA-SetonaikaiWest  3.40  2.42  1.98
##  5 20190128T2345-FRA-SetonaikaiWest  2.30  1.81  1.38
##  6 20190204T0115-KUM-Nagahama        3.50  2.44  2.08
##  7 20190204T2344-FRA-SetonaikaiWest  2.77  2.01  1.66
##  8 20190207T0100-KUM-Nagahama        3.26  1.82  1.22
##  9 20190211T2341-FRA-SetonaikaiWest  3.71  2.03  1.41
## 10 20190217T2345-FRA-SetonaikaiWest  2.77  1.73  1.50
## # ℹ 165 more rows
…
データの概要７

# 最頻種を調べてみる
(tmp0 <- smat |> mutate(across(!samplename, \(x) if_else(x != 0, 1, 0))) |> summarize(across(!samplename, sum)) |>
    pivot_longer(everything(), names_to = "Species", values_to = "detect") |> arrange(desc(detect)))

## # A tibble: 932 × 2
##    Species                    detect
##    <chr>                       <dbl>
##  1 unidentified Acanthopagrus    579
##  2 Takifugu alboplumbeus         541
##  3 Mugil cephalus                531
##  4 Engraulis japonicus           512
##  5 Parablennius yatabei          464
##  6 unidentified Sebastes         434
##  7 unidentified Takifugu         421
##  8 Girella punctata              374
##  9 Dictyosoma burgeri            368
## 10 unidentified Ditrema          361
## # ℹ 922 more rows
…
